<?xml version="1.0" encoding="UTF-8"?>
<testsuites>
  <testsuite name="webdriver_io_page" timestamp="2020-10-19T18:53:42" time="1.409" tests="1" failures="0" errors="0" skipped="0">
    <properties>
      <property name="specId" value="0"/>
      <property name="suiteName" value="webdriver.io page"/>
      <property name="capabilities" value="chrome.86_0_4240_75.windows"/>
      <property name="file" value=".\test\specs\basic.js"/>
    </properties>
    <testcase classname="chrome.86_0_4240_75.windows.webdriver_io_page" name="should_have_the_right_title" time="1.409">
      <system-out>
        <![CDATA[
COMMAND: POST /session/db2b05576f5f8252be47d2ad179f7309/url - {"url":"https://webdriver.io/"}
RESULT: {"url":"https://webdriver.io/"}
COMMAND: GET /session/db2b05576f5f8252be47d2ad179f7309/title - {}
RESULT: {}
COMMAND: DELETE /session/db2b05576f5f8252be47d2ad179f7309 - {}
RESULT: {}
]]>
      </system-out>
    </testcase>
  </testsuite>
</testsuites>